C:\Users\iva\Desktop\alpha-qa-2019-homework\TestFrameWork\src\main\java\com\telerikacademy\testframework\PropertiesManager.java
C:\Users\iva\Desktop\alpha-qa-2019-homework\TestFrameWork\src\main\java\com\telerikacademy\testframework\UserActions.java
C:\Users\iva\Desktop\alpha-qa-2019-homework\TestFrameWork\src\main\java\com\telerikacademy\testframework\CustomWebDriverManager.java
C:\Users\iva\Desktop\alpha-qa-2019-homework\TestFrameWork\src\main\java\com\telerikacademy\testframework\Utils.java
